<svg width="73" height="61" viewBox="0 0 73 61" fill="none" xmlns="http://www.w3.org/2000/svg">
<circle cx="70" cy="28" r="3" fill="#52CDB7"/>
<circle cx="5" cy="56" r="5" fill="#9B51E0"/>
<path d="M23.2057 3.37183C23.121 2.85025 23.7982 2.57226 24.106 3.00224L32.8797 15.2579C33.0949 15.5585 32.9212 15.98 32.5569 16.0412L27.5916 16.8758C27.32 16.9214 27.1368 17.1781 27.182 17.4498L28.8245 27.3297C28.9115 27.8533 28.2303 28.1326 27.9231 27.6993L18.2498 14.0525C18.0374 13.7528 18.2094 13.3347 18.571 13.2716L24.1555 12.2979C24.4249 12.251 24.6062 11.9963 24.5624 11.7263L23.2057 3.37183Z" fill="#F96424"/>
</svg>
