<svg width="32" height="32" viewBox="0 0 32 32" fill="none" xmlns="http://www.w3.org/2000/svg">
<g clip-path="url(#clip0_1145_7099)">
<path d="M0.637695 0.639893L31.3533 31.3555" stroke="#171321" stroke-width="1.27982" stroke-linecap="round" stroke-linejoin="round"/>
<path d="M5.4834 4.7811C5.87403 4.43799 6.38037 4.25602 6.90005 4.27196C7.41973 4.28791 7.91396 4.50059 8.28282 4.86701C8.65167 5.23342 8.86764 5.72623 8.88704 6.24579C8.90644 6.76535 8.72783 7.27289 8.38732 7.6658" stroke="#171321" stroke-width="1.27982" stroke-linecap="round" stroke-linejoin="round"/>
<path d="M24.3174 23.5816C24.7122 23.253 25.2158 23.0842 25.7288 23.1085C26.2419 23.1328 26.7273 23.3484 27.0893 23.7128C27.4513 24.0772 27.6636 24.564 27.6845 25.0772C27.7054 25.5904 27.5333 26.0929 27.2021 26.4855" stroke="#171321" stroke-width="1.27982" stroke-linecap="round" stroke-linejoin="round"/>
<path d="M25.411 8.64613C26.5457 8.64613 27.4655 7.72771 27.4655 6.59479C27.4655 5.46187 26.5457 4.54346 25.411 4.54346C24.2763 4.54346 23.3564 5.46187 23.3564 6.59479C23.3564 7.72771 24.2763 8.64613 25.411 8.64613Z" stroke="#171321" stroke-width="1.27982" stroke-linecap="round" stroke-linejoin="round"/>
<path d="M15.994 4.74916C17.1287 4.74916 18.0485 3.83074 18.0485 2.69782C18.0485 1.5649 17.1287 0.646484 15.994 0.646484C14.8593 0.646484 13.9395 1.5649 13.9395 2.69782C13.9395 3.83074 14.8593 4.74916 15.994 4.74916Z" stroke="#171321" stroke-width="1.27982" stroke-linecap="round" stroke-linejoin="round"/>
<path d="M29.3094 18.056C30.4441 18.056 31.364 17.1376 31.364 16.0047C31.364 14.8718 30.4441 13.9534 29.3094 13.9534C28.1747 13.9534 27.2549 14.8718 27.2549 16.0047C27.2549 17.1376 28.1747 18.056 29.3094 18.056Z" stroke="#171321" stroke-width="1.27982" stroke-linecap="round" stroke-linejoin="round"/>
<path d="M23.3576 27.0811C20.7986 28.7882 17.7273 29.5564 14.6659 29.2552C11.6045 28.954 8.74189 27.6019 6.56462 25.4288C4.38735 23.2556 3.02981 20.3956 2.72276 17.3348C2.41571 14.2739 3.17809 11.2012 4.88031 8.63892" stroke="#171321" stroke-width="1.27982" stroke-linecap="round" stroke-linejoin="round"/>
<path d="M29.1393 18.0967C28.8375 19.9915 28.128 21.7982 27.0596 23.3919" stroke="#171321" stroke-width="1.27982" stroke-linecap="round" stroke-linejoin="round"/>
<path d="M26.7588 8.1748C27.996 9.86885 28.812 11.8332 29.1392 13.9052" stroke="#171321" stroke-width="1.27982" stroke-linecap="round" stroke-linejoin="round"/>
<path d="M18.043 2.84766C20.1334 3.17116 22.1159 3.99071 23.8245 5.23771" stroke="#171321" stroke-width="1.27982" stroke-linecap="round" stroke-linejoin="round"/>
<path d="M8.6123 4.91138C10.2172 3.84206 12.0365 3.13662 13.9427 2.84448" stroke="#171321" stroke-width="1.27982" stroke-linecap="round" stroke-linejoin="round"/>
<path d="M5.97266 24.7742H19.9194" stroke="#171321" stroke-width="1.27982" stroke-linecap="round" stroke-linejoin="round"/>
<path d="M3.87207 20.2437H15.7904" stroke="#171321" stroke-width="1.27982" stroke-linecap="round" stroke-linejoin="round"/>
<path d="M2.66309 15.9976L11.2538 15.7129" stroke="#171321" stroke-width="1.27982" stroke-linecap="round" stroke-linejoin="round"/>
<path d="M3.87207 11.1792H6.60612" stroke="#171321" stroke-width="1.27982" stroke-linecap="round" stroke-linejoin="round"/>
</g>
<defs>
<clipPath id="clip0_1145_7099">
<rect width="31.9954" height="31.9954" fill="white"/>
</clipPath>
</defs>
</svg>
