<svg width="130" height="25" viewBox="0 0 130 25" fill="none" xmlns="http://www.w3.org/2000/svg">
<path d="M12.4583 0C5.56834 0 0 5.49936 0 12.2563C0 19.0346 5.59 24.5126 12.4583 24.5126C19.3483 24.5126 24.9384 19.0133 24.9384 12.2563C24.9384 5.49936 19.3483 0 12.4583 0Z" fill="#171321"/>
<path d="M21.1683 17.7131C20.6916 17.9475 19.7816 18.3312 19.0016 18.3312C18.6116 18.3312 18.2433 18.2246 17.8749 17.9688C15.8599 16.6473 16.5533 15.07 17.9183 12.6187C18.5033 11.5743 19.1099 10.5085 19.3699 9.40015C19.6516 8.2065 19.9116 6.47997 18.8716 5.15843C18.3733 4.54029 17.6366 4.07136 16.6399 3.75163C15.6216 3.41059 14.2999 3.24007 12.7183 3.21875H12.6099H12.1983C10.6166 3.24007 9.29495 3.41059 8.27662 3.75163C7.27995 4.07136 6.54329 4.54029 6.04496 5.15843C5.00496 6.47997 5.26496 8.2065 5.54662 9.40015C5.80662 10.5085 6.41329 11.5743 6.99829 12.6187C8.38495 15.07 9.05662 16.6473 7.04162 17.9688C6.67329 18.2033 6.30496 18.3312 5.91496 18.3312C5.13496 18.3312 4.22496 17.9475 3.74829 17.7131L3.85662 17.9262C4.85329 19.397 6.13162 20.1856 7.56162 20.1856C8.18995 20.1856 8.83995 20.0364 9.51162 19.738C10.2266 19.4183 10.855 18.8641 11.2883 18.1394C11.7216 17.4147 11.8733 16.626 11.765 15.9439C11.6133 15.3258 11.2883 14.4945 10.8983 13.514C9.90162 10.9775 8.53662 7.52442 9.72829 5.84052C10.2266 5.13712 11.115 4.77476 12.4583 4.77476C13.8016 4.77476 14.6899 5.13712 15.1883 5.84052C16.3583 7.52442 14.9933 10.9775 14.0183 13.514C13.6283 14.4945 13.3033 15.3258 13.1516 15.9439C13.0216 16.6473 13.195 17.436 13.6283 18.1607C14.0616 18.8854 14.6899 19.4609 15.4049 19.7593C16.0766 20.0577 16.7483 20.2069 17.3549 20.2069C18.7849 20.2069 20.0633 19.4183 21.0599 17.9475L21.1683 17.7131Z" fill="white"/>
<path d="M35.815 3.3252H33.1934V20.0363H35.815V3.3252Z" fill="#171321"/>
<path d="M48.6849 20.0364H46.0632V18.9493C45.4349 19.674 44.3082 20.2922 42.9432 20.2922C40.2999 20.2922 38.8699 18.5656 38.8699 16.0504V8.61133H41.4915V15.6028C41.4915 17.0096 42.1632 17.9475 43.6582 17.9475C44.7849 17.9475 45.7815 17.2441 46.0632 16.1143V8.61133H48.6849V20.0364Z" fill="#171321"/>
<path d="M54.5566 3.3252H51.9349V20.0363H54.5566V3.3252Z" fill="#171321"/>
<path d="M67.4483 20.0364H64.8266V18.9493C64.1983 19.674 63.0716 20.2922 61.7066 20.2922C59.0633 20.2922 57.6333 18.5656 57.6333 16.0504V8.61133H60.255V15.6028C60.255 17.0096 60.9266 17.9475 62.4216 17.9475C63.5483 17.9475 64.545 17.2441 64.8266 16.1143V8.61133H67.4483V20.0364Z" fill="#171321"/>
<path d="M73.2985 3.3252H70.6768V20.0363H73.2985V3.3252Z" fill="#171321"/>
<path d="M86.1033 16.4976C85.7133 18.7571 84.0017 20.3131 81.2067 20.3131C77.9566 20.3131 75.725 17.9044 75.725 14.3661C75.725 10.9556 78 8.37646 81.1633 8.37646C84.435 8.37646 86.2117 10.6572 86.2117 14.0037V14.9203H78.2816C78.3683 16.9239 79.5383 18.1389 81.2067 18.1389C82.4633 18.1389 83.395 17.606 83.6983 16.4976H86.1033ZM78.3683 13.0445H83.6333C83.6117 11.659 82.7883 10.5293 81.2067 10.5293C79.755 10.5293 78.6933 11.4032 78.3683 13.0445Z" fill="#171321"/>
<path d="M100.642 8.37646C103.025 8.37646 104.412 10.0177 104.412 12.6182V20.0573H101.79V13.0445C101.79 11.6377 101.162 10.6998 99.8833 10.6998C98.9516 10.6998 98.0633 11.2754 97.8249 12.4051V20.0786H95.2033V13.0658C95.2033 11.659 94.5749 10.7212 93.2966 10.7212C92.3649 10.7212 91.4766 11.2967 91.2383 12.4264V20.0999H88.6166V8.67488H91.2383V9.63407C91.7799 8.90935 92.8416 8.41909 94.1416 8.41909C95.4416 8.41909 96.5899 9.05855 97.1966 9.93248C97.9983 8.95198 99.0816 8.37646 100.642 8.37646Z" fill="#171321"/>
<path d="M112.19 20.292C108.918 20.292 106.665 17.8194 106.665 14.3237C106.665 10.828 108.918 8.35547 112.19 8.35547C115.462 8.35547 117.715 10.828 117.715 14.3237C117.715 17.8408 115.462 20.292 112.19 20.292ZM112.19 10.5723C110.305 10.5723 109.287 12.1709 109.287 14.3237C109.287 16.4766 110.305 18.0752 112.19 18.0752C114.075 18.0752 115.093 16.4766 115.093 14.3237C115.093 12.1709 114.075 10.5723 112.19 10.5723Z" fill="#171321"/>
<path d="M120.142 8.63225H122.763V9.71933C123.392 8.99461 124.54 8.37646 125.905 8.37646C128.548 8.37646 130 10.103 130 12.6182V20.0573H127.378V13.0445C127.378 11.6377 126.663 10.6998 125.19 10.6998C124.063 10.6998 123.045 11.4033 122.763 12.533V20.036H120.142V8.63225Z" fill="#171321"/>
</svg>
