<svg width="48" height="48" viewBox="0 0 48 48" fill="none" xmlns="http://www.w3.org/2000/svg">
<g clip-path="url(#clip0_35_1480)">
<path d="M13.565 21.8295H16.3197C16.5368 22.5848 16.9937 23.249 17.6215 23.7218C18.2493 24.1945 19.0139 24.4502 19.7997 24.4502C20.5856 24.4502 21.3502 24.1945 21.978 23.7218C22.6057 23.249 23.0627 22.5848 23.2797 21.8295H34.4345C34.7113 21.8295 34.9767 21.7196 35.1724 21.5239C35.3681 21.3282 35.478 21.0628 35.478 20.786C35.478 20.5093 35.3681 20.2439 35.1724 20.0482C34.9767 19.8525 34.7113 19.7425 34.4345 19.7425H23.3006C23.0835 18.9872 22.6266 18.3231 21.9988 17.8503C21.3711 17.3775 20.6065 17.1218 19.8206 17.1218C19.0347 17.1218 18.2702 17.3775 17.6424 17.8503C17.0146 18.3231 16.5577 18.9872 16.3406 19.7425H13.565C13.2882 19.7425 13.0228 19.8525 12.8271 20.0482C12.6314 20.2439 12.5215 20.5093 12.5215 20.786C12.5215 21.0628 12.6314 21.3282 12.8271 21.5239C13.0228 21.7196 13.2882 21.8295 13.565 21.8295ZM19.8258 19.2208C20.1354 19.2208 20.438 19.3126 20.6954 19.4846C20.9528 19.6566 21.1534 19.901 21.2719 20.187C21.3904 20.473 21.4214 20.7878 21.361 21.0914C21.3006 21.395 21.1515 21.6739 20.9326 21.8928C20.7137 22.1117 20.4348 22.2608 20.1312 22.3212C19.8276 22.3816 19.5129 22.3506 19.2268 22.2321C18.9408 22.1136 18.6964 21.913 18.5244 21.6556C18.3524 21.3982 18.2606 21.0956 18.2606 20.786C18.2633 20.3717 18.4291 19.9752 18.7221 19.6823C19.015 19.3893 19.4116 19.2235 19.8258 19.2208Z" fill="#E5E0FC"/>
<path d="M34.4345 30.3444H31.6589C31.4418 29.589 30.9849 28.9249 30.3571 28.4521C29.7293 27.9793 28.9648 27.7236 28.1789 27.7236C27.393 27.7236 26.6284 27.9793 26.0007 28.4521C25.3729 28.9249 24.9159 29.589 24.6989 30.3444H13.565C13.2882 30.3444 13.0228 30.4543 12.8271 30.65C12.6314 30.8457 12.5215 31.1111 12.5215 31.3878C12.5215 31.6646 12.6314 31.93 12.8271 32.1257C13.0228 32.3214 13.2882 32.4313 13.565 32.4313H24.6989C24.9159 33.1866 25.3729 33.8508 26.0007 34.3236C26.6284 34.7963 27.393 35.052 28.1789 35.052C28.9648 35.052 29.7293 34.7963 30.3571 34.3236C30.9849 33.8508 31.4418 33.1866 31.6589 32.4313H34.4345C34.7113 32.4313 34.9767 32.3214 35.1724 32.1257C35.3681 31.93 35.478 31.6646 35.478 31.3878C35.478 31.1111 35.3681 30.8457 35.1724 30.65C34.9767 30.4543 34.7113 30.3444 34.4345 30.3444ZM28.1737 32.953C27.8641 32.953 27.5615 32.8612 27.3041 32.6893C27.0467 32.5173 26.8461 32.2728 26.7276 31.9868C26.6091 31.7008 26.5781 31.3861 26.6385 31.0825C26.6989 30.7789 26.848 30.5 27.0669 30.2811C27.2858 30.0622 27.5647 29.9131 27.8683 29.8527C28.1719 29.7923 28.4866 29.8233 28.7726 29.9418C29.0586 30.0602 29.3031 30.2608 29.4751 30.5182C29.6471 30.7756 29.7389 31.0783 29.7389 31.3878C29.7389 31.803 29.574 32.2011 29.2804 32.4946C28.9869 32.7881 28.5888 32.953 28.1737 32.953Z" fill="#E5E0FC"/>
<path d="M19.8265 21.3078C21.2672 21.3078 22.4352 20.1399 22.4352 18.6992C22.4352 17.2584 21.2672 16.0905 19.8265 16.0905C18.3857 16.0905 17.2178 17.2584 17.2178 18.6992C17.2178 20.1399 18.3857 21.3078 19.8265 21.3078Z" fill="#AC7FFF"/>
<path d="M28.1741 31.9095C29.6149 31.9095 30.7828 30.7416 30.7828 29.3008C30.7828 27.8601 29.6149 26.6921 28.1741 26.6921C26.7334 26.6921 25.5654 27.8601 25.5654 29.3008C25.5654 30.7416 26.7334 31.9095 28.1741 31.9095Z" fill="#AC7FFF"/>
<path d="M34.4345 17.6556H23.3006C23.0835 16.9003 22.6266 16.2361 21.9988 15.7634C21.3711 15.2906 20.6065 15.0349 19.8206 15.0349C19.0347 15.0349 18.2702 15.2906 17.6424 15.7634C17.0146 16.2361 16.5577 16.9003 16.3406 17.6556H13.565C13.2882 17.6556 13.0228 17.7656 12.8271 17.9613C12.6314 18.157 12.5215 18.4224 12.5215 18.6991C12.5215 18.9759 12.6314 19.2413 12.8271 19.437C13.0228 19.6327 13.2882 19.7426 13.565 19.7426H16.3197C16.5368 20.4979 16.9937 21.1621 17.6215 21.6349C18.2493 22.1076 19.0139 22.3633 19.7997 22.3633C20.5856 22.3633 21.3502 22.1076 21.978 21.6349C22.6057 21.1621 23.0627 20.4979 23.2797 19.7426H34.4345C34.7113 19.7426 34.9767 19.6327 35.1724 19.437C35.3681 19.2413 35.478 18.9759 35.478 18.6991C35.478 18.4224 35.3681 18.157 35.1724 17.9613C34.9767 17.7656 34.7113 17.6556 34.4345 17.6556ZM19.8258 20.2643C19.5163 20.2643 19.2136 20.1725 18.9562 20.0005C18.6988 19.8286 18.4982 19.5841 18.3798 19.2981C18.2613 19.0121 18.2303 18.6974 18.2907 18.3938C18.3511 18.0901 18.5002 17.8112 18.7191 17.5923C18.938 17.3734 19.2169 17.2244 19.5205 17.164C19.8241 17.1036 20.1388 17.1346 20.4248 17.253C20.7108 17.3715 20.9553 17.5721 21.1273 17.8295C21.2992 18.0869 21.391 18.3895 21.391 18.6991C21.391 19.1142 21.2261 19.5124 20.9326 19.8059C20.6391 20.0994 20.241 20.2643 19.8258 20.2643Z" fill="#341472"/>
<path d="M34.4345 28.2574H31.6589C31.4418 27.5021 30.9849 26.8379 30.3571 26.3652C29.7293 25.8924 28.9648 25.6367 28.1789 25.6367C27.393 25.6367 26.6284 25.8924 26.0007 26.3652C25.3729 26.8379 24.9159 27.5021 24.6989 28.2574H13.565C13.2882 28.2574 13.0228 28.3674 12.8271 28.5631C12.6314 28.7588 12.5215 29.0242 12.5215 29.3009C12.5215 29.5777 12.6314 29.8431 12.8271 30.0388C13.0228 30.2345 13.2882 30.3444 13.565 30.3444H24.6989C24.9159 31.0997 25.3729 31.7639 26.0007 32.2367C26.6284 32.7094 27.393 32.9651 28.1789 32.9651C28.9648 32.9651 29.7293 32.7094 30.3571 32.2367C30.9849 31.7639 31.4418 31.0997 31.6589 30.3444H34.4345C34.7113 30.3444 34.9767 30.2345 35.1724 30.0388C35.3681 29.8431 35.478 29.5777 35.478 29.3009C35.478 29.0242 35.3681 28.7588 35.1724 28.5631C34.9767 28.3674 34.7113 28.2574 34.4345 28.2574ZM28.1737 30.8661C27.8641 30.8661 27.5615 30.7743 27.3041 30.6023C27.0467 30.4304 26.8461 30.1859 26.7276 29.8999C26.6091 29.6139 26.5781 29.2992 26.6385 28.9956C26.6989 28.6919 26.848 28.413 27.0669 28.1941C27.2858 27.9752 27.5647 27.8262 27.8683 27.7658C28.1719 27.7054 28.4866 27.7364 28.7726 27.8548C29.0586 27.9733 29.3031 28.1739 29.4751 28.4313C29.6471 28.6887 29.7389 28.9913 29.7389 29.3009C29.7389 29.716 29.574 30.1142 29.2804 30.4077C28.9869 30.7012 28.5888 30.8661 28.1737 30.8661Z" fill="#341472"/>
<path d="M1.04351 25.0448C1.32026 25.0448 1.58567 24.9349 1.78136 24.7392C1.97705 24.5435 2.08699 24.2781 2.08699 24.0013C2.08857 23.0699 2.14782 22.1394 2.26438 21.2152L6.88699 19.5248C7.03911 19.4711 7.17671 19.3828 7.28896 19.2669C7.40122 19.1511 7.48507 19.0107 7.53395 18.857C7.84335 17.8733 8.24151 16.9199 8.72351 16.0083C8.79521 15.864 8.83252 15.7051 8.83252 15.5439C8.83252 15.3828 8.79521 15.2239 8.72351 15.0796L6.63656 10.6135C7.78261 9.13361 9.11144 7.80478 10.5913 6.65873L15.0574 8.74568C15.2017 8.81738 15.3607 8.85469 15.5218 8.85469C15.6829 8.85469 15.8418 8.81738 15.9861 8.74568C16.8986 8.26552 17.8519 7.86743 18.8348 7.55612C18.9886 7.50725 19.1289 7.42339 19.2448 7.31113C19.3606 7.19888 19.4489 7.06128 19.5026 6.90916L21.1931 2.28655C23.0427 2.04655 24.9156 2.04655 26.7653 2.28655L28.4766 6.88829C28.5303 7.04041 28.6186 7.17801 28.7344 7.29026C28.8503 7.40252 28.9906 7.48638 29.1444 7.53525C30.1273 7.84656 31.0806 8.24465 31.9931 8.72481C32.1374 8.79651 32.2963 8.83382 32.4574 8.83382C32.6185 8.83382 32.7775 8.79651 32.9218 8.72481L37.3879 6.63786C38.8678 7.78391 40.1966 9.11274 41.3426 10.5926L39.2557 15.0587C39.184 15.203 39.1467 15.362 39.1467 15.5231C39.1467 15.6842 39.184 15.8431 39.2557 15.9874C39.7377 16.899 40.1358 17.8525 40.4452 18.8361C40.4941 18.9899 40.578 19.1302 40.6902 19.2461C40.8025 19.3619 40.9401 19.4502 41.0922 19.5039L46.3096 21.4031C46.4384 21.4503 46.5753 21.4718 46.7124 21.4662C46.8495 21.4606 46.9841 21.428 47.1086 21.3703C47.2331 21.3127 47.3451 21.2311 47.438 21.1302C47.531 21.0293 47.6032 20.911 47.6505 20.7822C47.6977 20.6534 47.7192 20.5165 47.7136 20.3794C47.708 20.2423 47.6754 20.1077 47.6177 19.9832C47.5601 19.8587 47.4785 19.7467 47.3776 19.6538C47.2766 19.5608 47.1584 19.4886 47.0296 19.4413L42.3026 17.7405C42.0343 16.9747 41.7207 16.2256 41.3635 15.497L43.4505 10.9266C43.5267 10.7589 43.5572 10.574 43.5389 10.3908C43.5206 10.2075 43.4541 10.0323 43.3461 9.88307C41.8898 7.88242 40.1294 6.12199 38.1287 4.66568C37.9795 4.55774 37.8043 4.49123 37.621 4.4729C37.4378 4.45457 37.2529 4.48509 37.0853 4.56133L32.5148 6.64829C31.7831 6.2872 31.0304 5.97012 30.2609 5.69873L28.5392 0.961333C28.474 0.786481 28.3632 0.632296 28.2182 0.514839C28.0732 0.397382 27.8994 0.320951 27.7148 0.293507C25.2533 -0.0921391 22.7468 -0.0921391 20.2853 0.293507C20.1007 0.320951 19.9269 0.397382 19.7819 0.514839C19.6369 0.632296 19.526 0.786481 19.4609 0.961333L17.7392 5.69873C16.9734 5.9671 16.2243 6.2807 15.4957 6.63786L10.9253 4.5509C10.7576 4.47465 10.5727 4.44414 10.3895 4.46247C10.2062 4.48079 10.031 4.54731 9.88177 4.65525C7.88112 6.11156 6.12069 7.87199 4.66438 9.87264C4.55644 10.0219 4.48993 10.197 4.4716 10.3803C4.45327 10.5636 4.48378 10.7485 4.56003 10.9161L6.64699 15.4866C6.28404 16.2174 5.96691 16.9702 5.69742 17.7405L0.960034 19.4622C0.785181 19.5273 0.630996 19.6382 0.513539 19.7832C0.396082 19.9282 0.319651 20.102 0.292207 20.2866C0.0956248 21.515 -0.00207997 22.7573 3.35647e-05 24.0013C3.35647e-05 24.2781 0.109971 24.5435 0.305661 24.7392C0.501351 24.9349 0.766764 25.0448 1.04351 25.0448Z" fill="#341472"/>
<path d="M46.9561 22.9565C46.6793 22.9565 46.4139 23.0665 46.2182 23.2622C46.0225 23.4579 45.9126 23.7233 45.9126 24C45.911 24.9315 45.8518 25.862 45.7352 26.7861L41.1126 28.4765C40.9605 28.5303 40.8229 28.6185 40.7106 28.7344C40.5984 28.8503 40.5145 28.9906 40.4657 29.1444C40.1562 30.128 39.7581 31.0815 39.2761 31.9931C39.2044 32.1374 39.1671 32.2963 39.1671 32.4574C39.1671 32.6185 39.2044 32.7775 39.2761 32.9218L41.363 37.3878C40.217 38.8677 38.8882 40.1966 37.4083 41.3426L32.9422 39.2557C32.7979 39.184 32.639 39.1467 32.4778 39.1467C32.3167 39.1467 32.1578 39.184 32.0135 39.2557C31.101 39.7358 30.1477 40.1339 29.1648 40.4452C29.011 40.4941 28.8707 40.578 28.7548 40.6902C28.639 40.8025 28.5507 40.9401 28.497 41.0922L26.8065 45.7148C24.9569 45.9548 23.084 45.9548 21.2344 45.7148L19.523 41.1131C19.4693 40.9609 19.3811 40.8233 19.2652 40.7111C19.1493 40.5988 19.009 40.515 18.8552 40.4661C17.8723 40.1548 16.919 39.7567 16.0065 39.2765C15.8622 39.2048 15.7033 39.1675 15.5422 39.1675C15.3811 39.1675 15.2221 39.2048 15.0778 39.2765L10.6117 41.3635C9.13185 40.2174 7.80302 38.8886 6.65696 37.4087L8.74392 32.9426C8.81562 32.7983 8.85293 32.6394 8.85293 32.4783C8.85293 32.3172 8.81562 32.1582 8.74392 32.0139C8.26191 31.1024 7.86376 30.1489 7.55435 29.1652C7.50548 29.0115 7.42162 28.8712 7.30937 28.7553C7.19711 28.6394 7.05952 28.5511 6.90739 28.4974L1.69 26.5983C1.56119 26.551 1.42433 26.5296 1.28724 26.5352C1.15014 26.5408 1.01549 26.5734 0.890982 26.631C0.766471 26.6887 0.654534 26.7703 0.561564 26.8712C0.468593 26.9721 0.39641 27.0903 0.349134 27.2192C0.301858 27.348 0.280416 27.4848 0.286032 27.6219C0.291648 27.759 0.324212 27.8937 0.381865 28.0182C0.439518 28.1427 0.521131 28.2546 0.622044 28.3476C0.722957 28.4406 0.841194 28.5127 0.970003 28.56L5.69696 30.2609C5.96345 31.0274 6.27709 31.7766 6.63609 32.5044L4.54913 37.0748C4.47289 37.2425 4.44237 37.4273 4.4607 37.6106C4.47903 37.7939 4.54554 37.969 4.65348 38.1183C6.10979 40.1189 7.87022 41.8794 9.87087 43.3357C10.0201 43.4436 10.1953 43.5101 10.3786 43.5285C10.5618 43.5468 10.7467 43.5163 10.9144 43.44L15.4848 41.3531C16.2134 41.7102 16.9625 42.0238 17.7283 42.2922L19.45 47.0296C19.5151 47.2044 19.626 47.3586 19.771 47.4761C19.916 47.5935 20.0898 47.67 20.2744 47.6974C22.7356 48.087 25.2427 48.087 27.7039 47.6974C27.8885 47.67 28.0623 47.5935 28.2073 47.4761C28.3523 47.3586 28.4631 47.2044 28.5283 47.0296L30.2604 42.3026C31.0262 42.0343 31.7753 41.7207 32.5039 41.3635L37.0743 43.4505C37.242 43.5267 37.4269 43.5572 37.6101 43.5389C37.7934 43.5206 37.9686 43.454 38.1178 43.3461C40.1185 41.8898 41.8789 40.1294 43.3352 38.1287C43.4432 37.9795 43.5097 37.8043 43.528 37.621C43.5463 37.4378 43.5158 37.2529 43.4396 37.0852L41.3526 32.5148C41.7098 31.7862 42.0234 31.0371 42.2917 30.2713L47.0291 28.5496C47.204 28.4844 47.3582 28.3736 47.4756 28.2286C47.5931 28.0836 47.6695 27.9098 47.697 27.7252C47.8976 26.4936 47.9988 25.2479 47.9996 24C47.9996 23.7233 47.8896 23.4579 47.6939 23.2622C47.4982 23.0665 47.2328 22.9565 46.9561 22.9565Z" fill="#341472"/>
</g>
<defs>
<clipPath id="clip0_35_1480">
<rect width="48" height="48" fill="white"/>
</clipPath>
</defs>
</svg>
