<svg width="48" height="48" viewBox="0 0 48 48" fill="none" xmlns="http://www.w3.org/2000/svg">
<g clip-path="url(#clip0_35_1483)">
<path d="M43.565 31.5652H38.1702C37.9497 30.8139 37.4923 30.1539 36.8661 29.6838C36.2399 29.2137 35.4785 28.9586 34.6954 28.9565C34.2221 28.957 33.7536 29.0528 33.318 29.2382L28.372 23.1026C28.2582 22.9622 28.1099 22.8538 27.9416 22.7879C27.7733 22.7221 27.5908 22.7011 27.412 22.7269C27.2327 22.7532 27.0634 22.8258 26.9207 22.9374C26.778 23.049 26.6668 23.1958 26.598 23.3635L20.1285 39.4226L16.3094 34.6748C16.736 34.0629 16.9621 33.3337 16.9563 32.5878C16.9533 31.7155 16.6373 30.8733 16.0658 30.2144C15.4943 29.5554 14.7052 29.1235 13.8422 28.9971C12.9791 28.8708 12.0993 29.0584 11.3629 29.5258C10.6265 29.9933 10.0823 30.7095 9.82935 31.5443H4.43457V33.6313H9.82935C9.97254 34.1194 10.2167 34.5719 10.5459 34.9596C10.8752 35.3473 11.2822 35.6615 11.7406 35.8819C12.199 36.1022 12.6986 36.2238 13.2071 36.2388C13.7155 36.2537 14.2214 36.1617 14.692 35.9687L19.6276 42.1043C19.7247 42.224 19.8471 42.3207 19.986 42.3875C20.125 42.4542 20.277 42.4894 20.4311 42.4904H20.5876C20.768 42.4631 20.9381 42.389 21.0809 42.2755C21.2237 42.162 21.3343 42.013 21.4015 41.8435L27.8711 25.7843L31.6902 30.5322C31.3914 30.9646 31.1897 31.4567 31.099 31.9745C31.0083 32.4923 31.0309 33.0236 31.165 33.5318C31.2991 34.0401 31.5417 34.5133 31.8761 34.919C32.2105 35.3246 32.6287 35.653 33.102 35.8817C33.5754 36.1104 34.0926 36.2338 34.6182 36.2436C35.1438 36.2535 35.6653 36.1494 36.1468 35.9385C36.6284 35.7277 37.0586 35.4151 37.4078 35.0222C37.7571 34.6293 38.0172 34.1655 38.1702 33.6626H43.565V31.5652ZM13.3041 34.1739C12.9946 34.1739 12.6919 34.0821 12.4345 33.9101C12.1771 33.7381 11.9765 33.4937 11.8581 33.2077C11.7396 32.9216 11.7086 32.6069 11.769 32.3033C11.8294 31.9997 11.9785 31.7208 12.1974 31.5019C12.4163 31.283 12.6952 31.1339 12.9988 31.0735C13.3024 31.0131 13.6171 31.0441 13.9031 31.1626C14.1891 31.2811 14.4336 31.4817 14.6056 31.7391C14.7776 31.9965 14.8694 32.2991 14.8694 32.6087C14.8694 33.0238 14.7044 33.4219 14.4109 33.7155C14.1174 34.009 13.7193 34.1739 13.3041 34.1739ZM34.6954 34.1739C34.3859 34.1739 34.0832 34.0821 33.8258 33.9101C33.5684 33.7381 33.3678 33.4937 33.2494 33.2077C33.1309 32.9216 33.0999 32.6069 33.1603 32.3033C33.2207 31.9997 33.3698 31.7208 33.5887 31.5019C33.8076 31.283 34.0865 31.1339 34.3901 31.0735C34.6937 31.0131 35.0084 31.0441 35.2944 31.1626C35.5804 31.2811 35.8249 31.4817 35.9969 31.7391C36.1689 31.9965 36.2607 32.2991 36.2607 32.6087C36.2607 33.0238 36.0957 33.4219 35.8022 33.7155C35.5087 34.009 35.1106 34.1739 34.6954 34.1739Z" fill="#E5E0FC"/>
<path d="M13.3045 33.1305C14.7452 33.1305 15.9132 31.9625 15.9132 30.5218C15.9132 29.081 14.7452 27.9131 13.3045 27.9131C11.8638 27.9131 10.6958 29.081 10.6958 30.5218C10.6958 31.9625 11.8638 33.1305 13.3045 33.1305Z" fill="#AC7FFF"/>
<path d="M34.6956 33.1305C36.1364 33.1305 37.3043 31.9625 37.3043 30.5218C37.3043 29.081 36.1364 27.9131 34.6956 27.9131C33.2549 27.9131 32.0869 29.081 32.0869 30.5218C32.0869 31.9625 33.2549 33.1305 34.6956 33.1305Z" fill="#AC7FFF"/>
<path d="M7.10587 7.82605H40.8937C41.6022 7.82605 42.2816 8.10749 42.7826 8.60846C43.2836 9.10942 43.565 9.78888 43.565 10.4974V15.9965H4.43457V10.4869C4.43733 9.78026 4.71999 9.10348 5.22066 8.60476C5.72132 8.10605 6.3992 7.82604 7.10587 7.82605V7.82605Z" fill="#CFC0FF"/>
<path d="M43.565 34.7061C43.2883 34.7061 43.0229 34.816 42.8272 35.0117C42.6315 35.2074 42.5215 35.4728 42.5215 35.7495V43.8261C42.5215 44.3795 42.3017 44.9104 41.9103 45.3018C41.5189 45.6931 40.9881 45.913 40.4346 45.913H7.56503C7.01153 45.913 6.48071 45.6931 6.08933 45.3018C5.69794 44.9104 5.47807 44.3795 5.47807 43.8261V35.7495C5.47807 35.4728 5.36813 35.2074 5.17244 35.0117C4.97675 34.816 4.71134 34.7061 4.43459 34.7061C4.15784 34.7061 3.89243 34.816 3.69674 35.0117C3.50105 35.2074 3.39111 35.4728 3.39111 35.7495V43.8261C3.39111 44.933 3.83086 45.9947 4.61362 46.7775C5.39638 47.5602 6.45804 48 7.56503 48H40.4346C41.5416 48 42.6032 47.5602 43.386 46.7775C44.1688 45.9947 44.6085 44.933 44.6085 43.8261V35.7495C44.6085 35.4728 44.4986 35.2074 44.3029 35.0117C44.1072 34.816 43.8418 34.7061 43.565 34.7061Z" fill="#341472"/>
<path d="M4.43459 17.0296H43.565C43.8418 17.0296 44.1072 16.9196 44.3029 16.7239C44.4986 16.5282 44.6085 16.2628 44.6085 15.9861V10.9565C44.6085 9.84952 44.1688 8.78786 43.386 8.0051C42.6032 7.22234 41.5416 6.78259 40.4346 6.78259H7.56503C6.45804 6.78259 5.39638 7.22234 4.61362 8.0051C3.83086 8.78786 3.39111 9.84952 3.39111 10.9565V15.9861C3.39111 16.2628 3.50105 16.5282 3.69674 16.7239C3.89243 16.9196 4.15784 17.0296 4.43459 17.0296ZM5.47807 10.9565C5.47807 10.403 5.69794 9.87219 6.08933 9.48081C6.48071 9.08943 7.01153 8.86955 7.56503 8.86955H40.4346C40.9881 8.86955 41.5189 9.08943 41.9103 9.48081C42.3017 9.87219 42.5215 10.403 42.5215 10.9565V14.9426H5.47807V10.9565Z" fill="#341472"/>
<path d="M46.9565 29.4783H44.6087V21.2035C44.6087 20.9268 44.4988 20.6614 44.3031 20.4657C44.1074 20.27 43.842 20.16 43.5652 20.16C43.2885 20.16 43.0231 20.27 42.8274 20.4657C42.6317 20.6614 42.5217 20.9268 42.5217 21.2035V29.4783H38.1704C37.9499 28.727 37.4925 28.067 36.8663 27.5969C36.2401 27.1268 35.4787 26.8717 34.6957 26.8696C34.2202 26.8729 33.7495 26.9649 33.3078 27.1409L28.3722 21.0157C28.2584 20.8753 28.1101 20.7669 27.9418 20.701C27.7735 20.6352 27.591 20.6142 27.4122 20.64C27.2329 20.6663 27.0636 20.7389 26.9209 20.8505C26.7782 20.9621 26.667 21.1089 26.5983 21.2766L20.1287 37.3357L16.3096 32.5879C16.7362 31.976 16.9623 31.2468 16.9565 30.5009C16.9535 29.6286 16.6375 28.7864 16.066 28.1275C15.4945 27.4685 14.7054 27.0366 13.8424 26.9102C12.9793 26.7839 12.0996 26.9715 11.3631 27.4389C10.6267 27.9064 10.0825 28.6226 9.82957 29.4574H5.47826V21.2035C5.47826 20.9268 5.36832 20.6614 5.17263 20.4657C4.97694 20.27 4.71153 20.16 4.43478 20.16C4.15803 20.16 3.89262 20.27 3.69693 20.4657C3.50124 20.6614 3.3913 20.9268 3.3913 21.2035V29.4783H1.04348C0.766731 29.4783 0.501318 29.5882 0.305628 29.7839C0.109938 29.9796 0 30.245 0 30.5218C0 30.7985 0.109938 31.0639 0.305628 31.2596C0.501318 31.4553 0.766731 31.5653 1.04348 31.5653H9.82957C9.97275 32.0533 10.2169 32.5059 10.5461 32.8936C10.8754 33.2813 11.2824 33.5955 11.7408 33.8158C12.1992 34.0362 12.6989 34.1578 13.2073 34.1728C13.7157 34.1877 14.2216 34.0957 14.6922 33.9026L19.6278 40.0279C19.7239 40.1495 19.8459 40.2482 19.9848 40.3167C20.1238 40.3853 20.2763 40.4221 20.4313 40.4244H20.5878C20.7682 40.3971 20.9383 40.323 21.0811 40.2095C21.2239 40.096 21.3345 39.947 21.4017 39.7774L27.8713 23.7183L31.6904 28.4661C31.3916 28.8986 31.1899 29.3906 31.0992 29.9084C31.0086 30.4262 31.0311 30.9575 31.1652 31.4658C31.2994 31.9741 31.5419 32.4473 31.8763 32.8529C32.2107 33.2586 32.6289 33.587 33.1023 33.8157C33.5756 34.0443 34.0928 34.1678 34.6184 34.1776C35.144 34.1874 35.6655 34.0833 36.147 33.8725C36.6286 33.6616 37.0588 33.349 37.4081 32.9562C37.7573 32.5633 38.0174 32.0995 38.1704 31.5966H46.9565C47.2333 31.5966 47.4987 31.4866 47.6944 31.2909C47.8901 31.0952 48 30.8298 48 30.5531C48 30.2763 47.8901 30.0109 47.6944 29.8152C47.4987 29.6195 47.2333 29.5096 46.9565 29.5096V29.4783ZM11.7391 30.5218C11.7391 30.2122 11.8309 29.9096 12.0029 29.6522C12.1749 29.3948 12.4194 29.1942 12.7054 29.0757C12.9914 28.9572 13.3061 28.9262 13.6097 28.9866C13.9133 29.047 14.1922 29.1961 14.4111 29.415C14.63 29.6339 14.7791 29.9128 14.8395 30.2164C14.8999 30.52 14.8689 30.8347 14.7504 31.1208C14.632 31.4068 14.4313 31.6512 14.1739 31.8232C13.9165 31.9952 13.6139 32.087 13.3043 32.087C12.8892 32.087 12.4911 31.9221 12.1976 31.6285C11.904 31.335 11.7391 30.9369 11.7391 30.5218ZM34.6957 32.087C34.3861 32.087 34.0835 31.9952 33.8261 31.8232C33.5687 31.6512 33.368 31.4068 33.2496 31.1208C33.1311 30.8347 33.1001 30.52 33.1605 30.2164C33.2209 29.9128 33.37 29.6339 33.5889 29.415C33.8078 29.1961 34.0867 29.047 34.3903 28.9866C34.6939 28.9262 35.0086 28.9572 35.2946 29.0757C35.5806 29.1942 35.8251 29.3948 35.9971 29.6522C36.1691 29.9096 36.2609 30.2122 36.2609 30.5218C36.2609 30.9369 36.096 31.335 35.8024 31.6285C35.5089 31.9221 35.1108 32.087 34.6957 32.087Z" fill="#341472"/>
</g>
<defs>
<clipPath id="clip0_35_1483">
<rect width="48" height="48" fill="white"/>
</clipPath>
</defs>
</svg>
