<svg width="48" height="48" viewBox="0 0 48 48" fill="none" xmlns="http://www.w3.org/2000/svg">
<g clip-path="url(#clip0_35_1477)">
<path d="M36.1252 7.42957C39.012 11.359 40.3959 16.1925 40.0262 21.0543C39.6566 25.9162 37.5577 30.4848 34.1099 33.9326C30.6622 37.3803 26.0935 39.4792 21.2317 39.8489C16.3698 40.2186 11.5364 38.8346 7.60693 35.9478C9.34384 38.3285 11.5757 40.3048 14.149 41.7409C16.7224 43.177 19.5762 44.0389 22.5143 44.2672C25.4524 44.4955 28.4051 44.0848 31.1694 43.0634C33.9337 42.0421 36.444 40.4342 38.5278 38.3504C40.6116 36.2666 42.2195 33.7563 43.2408 30.992C44.2622 28.2277 44.6728 25.275 44.4445 22.3369C44.2162 19.3988 43.3544 16.545 41.9183 13.9717C40.4822 11.3983 38.5059 9.16647 36.1252 7.42957Z" fill="#E5E0FC"/>
<path d="M3.65215 46.9565C5.0929 46.9565 6.26085 45.7886 6.26085 44.3478C6.26085 42.9071 5.0929 41.7391 3.65215 41.7391C2.21141 41.7391 1.04346 42.9071 1.04346 44.3478C1.04346 45.7886 2.21141 46.9565 3.65215 46.9565Z" fill="#AC7FFF"/>
<path d="M24.094 6.26085C25.5348 6.26085 26.7027 5.0929 26.7027 3.65215C26.7027 2.21141 25.5348 1.04346 24.094 1.04346C22.6533 1.04346 21.4854 2.21141 21.4854 3.65215C21.4854 5.0929 22.6533 6.26085 24.094 6.26085Z" fill="#AC7FFF"/>
<path d="M3.65215 26.6087C5.0929 26.6087 6.26085 25.4407 6.26085 24C6.26085 22.5592 5.0929 21.3913 3.65215 21.3913C2.21141 21.3913 1.04346 22.5592 1.04346 24C1.04346 25.4407 2.21141 26.6087 3.65215 26.6087Z" fill="#AC7FFF"/>
<path d="M44.348 26.6087C45.7887 26.6087 46.9566 25.4407 46.9566 24C46.9566 22.5592 45.7887 21.3913 44.348 21.3913C42.9072 21.3913 41.7393 22.5592 41.7393 24C41.7393 25.4407 42.9072 26.6087 44.348 26.6087Z" fill="#AC7FFF"/>
<path d="M45.1722 27.5478C45.974 27.3621 46.6893 26.9103 47.2014 26.266C47.7135 25.6218 47.9923 24.823 47.9923 24C47.9923 23.177 47.7135 22.3782 47.2014 21.734C46.6893 21.0897 45.974 20.6379 45.1722 20.4522C44.4338 16.0772 42.3526 12.0403 39.2171 8.90105C36.0817 5.76183 32.0472 3.67582 27.6731 2.93218C27.5055 2.10657 27.0576 1.36432 26.4053 0.831169C25.753 0.298022 24.9364 0.0067749 24.094 0.0067749C23.2515 0.0067749 22.435 0.298022 21.7827 0.831169C21.1304 1.36432 20.6825 2.10657 20.5148 2.93218C16.1521 3.68625 12.129 5.77036 8.99646 8.89918C5.86391 12.028 3.77499 16.0486 3.01572 20.4104C2.16868 20.5554 1.40019 20.9952 0.846149 21.6521C0.292108 22.309 -0.0117846 23.1407 -0.0117846 24C-0.0117846 24.8594 0.292108 25.691 0.846149 26.3479C1.40019 27.0048 2.16868 27.4446 3.01572 27.5896C3.89495 32.76 6.64749 37.4256 10.7479 40.6957C10.9343 40.8452 11.1663 40.9262 11.4053 40.9252C11.6209 40.924 11.8308 40.856 12.0062 40.7306C12.1815 40.6052 12.3138 40.4286 12.3847 40.225C12.4556 40.0214 12.4617 39.8008 12.4022 39.5936C12.3427 39.3864 12.2204 39.2027 12.0522 39.0678C8.38023 36.1417 5.90482 31.974 5.09224 27.3496C5.74867 27.0695 6.30834 26.6027 6.7017 26.0072C7.09505 25.4117 7.30476 24.7137 7.30476 24C7.30476 23.2863 7.09505 22.5884 6.7017 21.9928C6.30834 21.3973 5.74867 20.9305 5.09224 20.6504C5.78944 16.7548 7.66337 13.1662 10.4618 10.3678C13.2602 7.5694 16.8488 5.69547 20.7444 4.99826C21.0149 5.67379 21.4815 6.25281 22.0841 6.66066C22.6867 7.06851 23.3976 7.28649 24.1253 7.28649C24.8529 7.28649 25.5639 7.06851 26.1665 6.66066C26.7691 6.25281 27.2357 5.67379 27.5062 4.99826C31.3936 5.68661 34.9771 7.5484 37.7752 10.3334C40.5733 13.1185 42.4518 16.6933 43.1583 20.5774C42.4581 20.8323 41.8533 21.2965 41.426 21.9069C40.9986 22.5173 40.7694 23.2444 40.7694 23.9896C40.7694 24.7347 40.9986 25.4618 41.426 26.0722C41.8533 26.6826 42.4581 27.1468 43.1583 27.4017C42.3467 31.8658 39.9935 35.9032 36.5094 38.8095C33.0252 41.7158 28.6312 43.3066 24.094 43.3044H7.13746C6.88681 42.4637 6.34193 41.7413 5.60246 41.2693C4.86299 40.7973 3.97833 40.6073 3.11026 40.7339C2.24219 40.8606 1.44871 41.2954 0.874915 41.959C0.30112 42.6226 -0.0146484 43.4706 -0.0146484 44.3478C-0.0146484 45.2251 0.30112 46.073 0.874915 46.7366C1.44871 47.4002 2.24219 47.8351 3.11026 47.9617C3.97833 48.0884 4.86299 47.8984 5.60246 47.4264C6.34193 46.9544 6.88681 46.232 7.13746 45.3913H24.094C29.1459 45.3749 34.03 43.5762 37.8859 40.3121C41.7418 37.0479 44.3221 32.5278 45.1722 27.5478ZM3.65224 25.5652C3.34267 25.5652 3.04005 25.4734 2.78265 25.3014C2.52525 25.1294 2.32464 24.885 2.20617 24.599C2.0877 24.313 2.0567 23.9983 2.1171 23.6946C2.17749 23.391 2.32657 23.1121 2.54546 22.8932C2.76436 22.6743 3.04326 22.5253 3.34688 22.4649C3.6505 22.4045 3.96522 22.4355 4.25122 22.5539C4.53723 22.6724 4.78168 22.873 4.95367 23.1304C5.12566 23.3878 5.21746 23.6904 5.21746 24C5.21746 24.4151 5.05255 24.8132 4.75902 25.1068C4.46548 25.4003 4.06736 25.5652 3.65224 25.5652ZM24.094 5.21739C23.7844 5.21739 23.4818 5.12559 23.2244 4.95361C22.967 4.78162 22.7664 4.53716 22.6479 4.25116C22.5294 3.96515 22.4984 3.65044 22.5588 3.34682C22.6192 3.04319 22.7683 2.7643 22.9872 2.5454C23.2061 2.3265 23.485 2.17743 23.7886 2.11703C24.0922 2.05664 24.407 2.08764 24.693 2.2061C24.979 2.32457 25.2234 2.52519 25.3954 2.78259C25.5674 3.03999 25.6592 3.3426 25.6592 3.65218C25.6592 4.0673 25.4943 4.46542 25.2008 4.75895C24.9072 5.05249 24.5091 5.21739 24.094 5.21739ZM44.3479 22.4348C44.6575 22.4348 44.9601 22.5266 45.2175 22.6986C45.4749 22.8706 45.6755 23.115 45.794 23.401C45.9124 23.687 45.9434 24.0017 45.883 24.3054C45.8226 24.609 45.6736 24.8879 45.4547 25.1068C45.2358 25.3257 44.9569 25.4748 44.6533 25.5351C44.3496 25.5955 44.0349 25.5645 43.7489 25.4461C43.4629 25.3276 43.2185 25.127 43.0465 24.8696C42.8745 24.6122 42.7827 24.3096 42.7827 24C42.7827 23.5849 42.9476 23.1868 43.2411 22.8932C43.5347 22.5997 43.9328 22.4348 44.3479 22.4348ZM3.65224 45.913C3.34267 45.913 3.04005 45.8213 2.78265 45.6493C2.52525 45.4773 2.32464 45.2328 2.20617 44.9468C2.0877 44.6608 2.0567 44.3461 2.1171 44.0425C2.17749 43.7388 2.32657 43.46 2.54546 43.2411C2.76436 43.0222 3.04326 42.8731 3.34688 42.8127C3.6505 42.7523 3.96522 42.7833 4.25122 42.9018C4.53723 43.0202 4.78168 43.2208 4.95367 43.4782C5.12566 43.7356 5.21746 44.0383 5.21746 44.3478C5.21746 44.763 5.05255 45.1611 4.75902 45.4546C4.46548 45.7481 4.06736 45.913 3.65224 45.913Z" fill="#341472"/>
<path d="M47.9164 43.9513C47.8667 43.8232 47.7923 43.7062 47.6973 43.607L45.0886 40.9983C44.8921 40.8018 44.6256 40.6914 44.3477 40.6914C44.0698 40.6914 43.8033 40.8018 43.6068 40.9983C43.4103 41.1948 43.2999 41.4613 43.2999 41.7392C43.2999 42.017 43.4103 42.2835 43.6068 42.48L44.4312 43.3044H37.3042C37.0275 43.3044 36.7621 43.4143 36.5664 43.61C36.3707 43.8057 36.2607 44.0711 36.2607 44.3478C36.2607 44.6246 36.3707 44.89 36.5664 45.0857C36.7621 45.2814 37.0275 45.3913 37.3042 45.3913H44.4312L43.6068 46.2157C43.509 46.3127 43.4314 46.4281 43.3784 46.5552C43.3254 46.6824 43.2982 46.8188 43.2982 46.9565C43.2982 47.0943 43.3254 47.2307 43.3784 47.3578C43.4314 47.485 43.509 47.6004 43.6068 47.6974C43.7043 47.7941 43.82 47.8706 43.9471 47.9226C44.0742 47.9745 44.2104 48.0008 44.3477 48C44.485 48.0008 44.6212 47.9745 44.7483 47.9226C44.8754 47.8706 44.9911 47.7941 45.0886 47.6974L47.6973 45.0887C47.7894 44.9873 47.8635 44.8708 47.9164 44.7444C48.0208 44.4903 48.0208 44.2054 47.9164 43.9513Z" fill="#341472"/>
<path d="M22.2784 29.2174C22.5521 29.2162 22.8145 29.1075 23.0088 28.9148L29.2697 22.6539C29.3675 22.5569 29.4451 22.4415 29.4981 22.3143C29.5511 22.1872 29.5784 22.0508 29.5784 21.913C29.5784 21.7753 29.5511 21.6389 29.4981 21.5117C29.4451 21.3846 29.3675 21.2692 29.2697 21.1722C29.0742 20.9778 28.8097 20.8687 28.534 20.8687C28.2584 20.8687 27.9939 20.9778 27.7984 21.1722L22.2784 26.713L20.3688 24.8035C20.1733 24.6091 19.9089 24.5 19.6332 24.5C19.3575 24.5 19.093 24.6091 18.8975 24.8035C18.7997 24.9005 18.7221 25.0159 18.6691 25.143C18.6161 25.2702 18.5889 25.4066 18.5889 25.5443C18.5889 25.6821 18.6161 25.8185 18.6691 25.9456C18.7221 26.0728 18.7997 26.1882 18.8975 26.2852L21.5375 28.9252C21.7361 29.1167 22.0025 29.2218 22.2784 29.2174Z" fill="#341472"/>
</g>
<defs>
<clipPath id="clip0_35_1477">
<rect width="48" height="48" fill="white"/>
</clipPath>
</defs>
</svg>
