<svg width="32" height="33" viewBox="0 0 32 33" fill="none" xmlns="http://www.w3.org/2000/svg">
<g clip-path="url(#clip0_1145_6488)">
<path d="M18.2382 21.4437C18.3843 21.3789 18.5423 21.3455 18.7021 21.3455C18.8619 21.3455 19.02 21.3789 19.1661 21.4437L20.3723 22.0068C20.9941 21.5514 21.5423 21.0032 21.9977 20.3814L21.4377 19.1912C21.3703 19.0474 21.3334 18.8911 21.3294 18.7323C21.3254 18.5735 21.3543 18.4156 21.4145 18.2685C21.4746 18.1215 21.5646 17.9885 21.6788 17.878C21.7929 17.7675 21.9287 17.6819 22.0776 17.6266L23.3287 17.1723C23.4487 16.4112 23.4487 15.6361 23.3287 14.875L22.0776 14.4271C21.9291 14.3717 21.7937 14.2862 21.6798 14.1759C21.566 14.0657 21.4762 13.933 21.4161 13.7864C21.356 13.6397 21.3269 13.4822 21.3306 13.3238C21.3343 13.1653 21.3708 13.0094 21.4377 12.8657L22.0009 11.6595C21.5455 11.0377 20.9973 10.4895 20.3755 10.0341L19.1629 10.5876C19.019 10.6551 18.8628 10.692 18.704 10.696C18.5452 10.7 18.3872 10.671 18.2402 10.6109C18.0932 10.5507 17.9602 10.4607 17.8497 10.3466C17.7392 10.2325 17.6536 10.0966 17.5983 9.94771L17.144 8.69669C16.3829 8.57669 15.6077 8.57669 14.8467 8.69669L14.3988 9.94771C14.3434 10.0962 14.2579 10.2317 14.1476 10.3455C14.0374 10.4594 13.9047 10.5492 13.7581 10.6093C13.6114 10.6694 13.4539 10.6985 13.2955 10.6948C13.137 10.691 12.981 10.6546 12.8374 10.5876L11.6312 10.0245C11.021 10.4674 10.4816 11.0003 10.0314 11.6051M10.5849 13.7872C10.5241 13.9339 10.4336 14.0666 10.3191 14.1767C10.2045 14.2868 10.0685 14.3721 9.9194 14.4271L8.66838 14.8814C8.54999 15.6426 8.54999 16.4175 8.66838 17.1787L9.9194 17.6266C10.0679 17.682 10.2034 17.7675 10.3172 17.8777C10.4311 17.988 10.5209 18.1206 10.581 18.2673C10.6411 18.4139 10.6702 18.5714 10.6665 18.7299C10.6627 18.8883 10.6262 19.0443 10.5593 19.188L9.99619 20.3942C10.4516 21.016 10.9998 21.5642 11.6216 22.0196L12.8342 21.466C12.978 21.3986 13.1343 21.3617 13.2931 21.3577C13.4519 21.3537 13.6098 21.3827 13.7568 21.4428C13.9039 21.5029 14.0368 21.5929 14.1473 21.7071C14.2578 21.8212 14.3434 21.957 14.3988 22.106L14.8531 23.357C15.6141 23.477 16.3893 23.477 17.1504 23.357M13.5669 16.0268C13.5669 15.5459 13.7095 15.0758 13.9767 14.6759C14.2439 14.276 14.6236 13.9643 15.068 13.7803C15.5123 13.5962 16.0012 13.5481 16.4729 13.6419C16.9446 13.7357 17.3779 13.9673 17.718 14.3074C18.058 14.6475 18.2896 15.0807 18.3834 15.5524C18.4773 16.0241 18.4291 16.5131 18.2451 16.9574C18.061 17.4017 17.7494 17.7815 17.3495 18.0487C16.9496 18.3159 16.4795 18.4585 15.9985 18.4585C15.3536 18.4585 14.7351 18.2023 14.2791 17.7463C13.8231 17.2902 13.5669 16.6717 13.5669 16.0268Z" stroke="#171321" stroke-width="1.27982" stroke-linecap="round" stroke-linejoin="round"/>
<path d="M29.0157 15.3868C29.0157 15.6012 29.0157 15.8188 29.0157 16.0267C29.0165 18.4765 28.3265 20.8769 27.0248 22.9522C25.7231 25.0276 23.8626 26.6937 21.6567 27.7595" stroke="#171321" stroke-width="1.27982" stroke-linecap="round" stroke-linejoin="round"/>
<path d="M16.0005 2.995C18.5346 2.99516 21.0137 3.7336 23.1348 5.12004C25.256 6.50649 26.9273 8.48088 27.9444 10.8019" stroke="#171321" stroke-width="1.27982" stroke-linecap="round" stroke-linejoin="round"/>
<path d="M2.99657 16.8874C2.97737 16.6026 2.96777 16.3147 2.96777 16.0267C2.96851 13.5781 3.65926 11.1793 4.96084 9.10525C6.26241 7.03122 8.12211 5.36597 10.3267 4.30042" stroke="#171321" stroke-width="1.27982" stroke-linecap="round" stroke-linejoin="round"/>
<path d="M15.9999 29.0586C13.4075 29.0587 10.874 28.2859 8.72305 26.8388C6.57214 25.3918 4.90156 23.3363 3.9248 20.9349" stroke="#171321" stroke-width="1.27982" stroke-linecap="round" stroke-linejoin="round"/>
<path d="M17.1654 0.668945L14.8384 2.99913L17.1654 5.32932" stroke="#171321" stroke-width="1.27982" stroke-linecap="round" stroke-linejoin="round"/>
<path d="M14.8384 31.3928L17.1654 29.0626L14.8384 26.7324" stroke="#171321" stroke-width="1.27982" stroke-linecap="round" stroke-linejoin="round"/>
<path d="M31.3655 17.1923L29.0353 14.8654L26.7051 17.1923" stroke="#171321" stroke-width="1.27982" stroke-linecap="round" stroke-linejoin="round"/>
<path d="M0.641113 14.8654L2.9713 17.1923L5.30149 14.8654" stroke="#171321" stroke-width="1.27982" stroke-linecap="round" stroke-linejoin="round"/>
</g>
<defs>
<clipPath id="clip0_1145_6488">
<rect width="31.9954" height="31.9954" fill="white" transform="translate(0 0.0290527)"/>
</clipPath>
</defs>
</svg>
