<svg width="35" height="35" viewBox="0 0 35 35" fill="none" xmlns="http://www.w3.org/2000/svg">
<g clip-path="url(#clip0_854_2028)">
<path d="M17.5002 35C27.1652 35 35.0002 27.165 35.0002 17.5C35.0002 7.83502 27.1652 0 17.5002 0C7.83526 0 0.000244141 7.83502 0.000244141 17.5C0.000244141 27.165 7.83526 35 17.5002 35Z" fill="#9B51E0"/>
<path d="M13.5375 21.2291C11.4135 19.1051 11.4135 15.6615 13.5375 13.5375C15.6615 11.4135 19.1051 11.4135 21.2291 13.5375C23.3531 15.6615 23.3531 19.1051 21.2291 21.2291C19.1051 23.3531 15.6615 23.3531 13.5375 21.2291Z" stroke="white" stroke-width="2.5" stroke-miterlimit="10" stroke-linecap="round" stroke-linejoin="round"/>
<path d="M13.5374 21.229L20.1907 27.8823" stroke="white" stroke-width="2.5" stroke-miterlimit="10" stroke-linecap="round" stroke-linejoin="round"/>
<path d="M21.2293 21.2292L27.8826 14.5759" stroke="white" stroke-width="2.5" stroke-miterlimit="10" stroke-linecap="round" stroke-linejoin="round"/>
<path d="M21.2292 13.5376L14.576 6.88432" stroke="white" stroke-width="2.5" stroke-miterlimit="10" stroke-linecap="round" stroke-linejoin="round"/>
<path d="M13.5378 13.5376L6.88456 20.1909" stroke="white" stroke-width="2.5" stroke-miterlimit="10" stroke-linecap="round" stroke-linejoin="round"/>
<path d="M9.69188 25.075C5.4439 20.827 5.4439 13.9396 9.69188 9.69165C13.9399 5.44366 20.8272 5.44366 25.0752 9.69165C29.3232 13.9396 29.3232 20.827 25.0752 25.075C20.8272 29.3229 13.9399 29.3229 9.69188 25.075Z" stroke="white" stroke-width="2.5" stroke-miterlimit="10" stroke-linecap="round" stroke-linejoin="round"/>
</g>
<defs>
<clipPath id="clip0_854_2028">
<rect width="35" height="35" fill="white"/>
</clipPath>
</defs>
</svg>
