<svg width="12" height="12" viewBox="0 0 12 12" fill="none" xmlns="http://www.w3.org/2000/svg">
<path fill-rule="evenodd" clip-rule="evenodd" d="M2 3H10C10.2524 3 10.4611 3.18701 10.4951 3.43003L6 5.99869L1.50486 3.43003C1.53888 3.18701 1.7476 3 2 3ZM1.5 5.15489V8.5C1.5 8.77614 1.72386 9 2 9H10C10.2761 9 10.5 8.77614 10.5 8.5V5.15489L6.3721 7.51368L6 7.72631L5.6279 7.51368L1.5 5.15489ZM0 3.5C0 2.39543 0.895431 1.5 2 1.5H10C11.1046 1.5 12 2.39543 12 3.5V8.5C12 9.60457 11.1046 10.5 10 10.5H2C0.895431 10.5 0 9.60457 0 8.5V3.5Z" fill="black"/>
</svg>
