<svg width="96" height="96" viewBox="0 0 96 96" fill="none" xmlns="http://www.w3.org/2000/svg">
<g clip-path="url(#clip0_289_5053)">
<path d="M16.4544 14.3424C17.6244 13.3148 19.141 12.7697 20.6974 12.8175C22.2539 12.8652 23.7342 13.5022 24.839 14.5997C25.9438 15.6972 26.5906 17.1732 26.6487 18.7293C26.7068 20.2855 26.1719 21.8056 25.152 22.9824" fill="#FF675F"/>
<path d="M72.96 70.752C74.1425 69.7679 75.6507 69.2624 77.1875 69.3351C78.7242 69.4079 80.1779 70.0536 81.2621 71.1451C82.3463 72.2365 82.9824 73.6945 83.0449 75.2317C83.1075 76.7689 82.592 78.2737 81.6 79.4496" fill="#FF675F"/>
<path d="M76.2336 25.92C79.6322 25.92 82.3872 23.1692 82.3872 19.776C82.3872 16.3827 79.6322 13.632 76.2336 13.632C72.8351 13.632 70.08 16.3827 70.08 19.776C70.08 23.1692 72.8351 25.92 76.2336 25.92Z" fill="#AC7FFF"/>
<path d="M47.9808 14.2272C51.3793 14.2272 54.1344 11.4764 54.1344 8.08321C54.1344 4.68997 51.3793 1.93921 47.9808 1.93921C44.5823 1.93921 41.8272 4.68997 41.8272 8.08321C41.8272 11.4764 44.5823 14.2272 47.9808 14.2272Z" fill="#FCA121"/>
<path d="M87.9264 54.1536C91.325 54.1536 94.08 51.4028 94.08 48.0096C94.08 44.6164 91.325 41.8656 87.9264 41.8656C84.5279 41.8656 81.7728 44.6164 81.7728 48.0096C81.7728 51.4028 84.5279 54.1536 87.9264 54.1536Z" fill="#FCA121"/>
<path d="M94.08 96C93.5716 95.9978 93.0848 95.7941 92.7264 95.4336L0.566379 3.27358C0.208777 2.91384 0.00805664 2.42722 0.00805664 1.91998C0.00805664 1.41274 0.208777 0.926114 0.566379 0.566379C0.926114 0.208777 1.41274 0.00805664 1.91998 0.00805664C2.42722 0.00805664 2.91384 0.208777 3.27358 0.566379L95.4336 92.7264C95.7005 92.9949 95.882 93.3362 95.9555 93.7076C96.0289 94.079 95.9909 94.4638 95.8462 94.8137C95.7016 95.1635 95.4567 95.4628 95.1424 95.6738C94.8282 95.8849 94.4585 95.9984 94.08 96Z" fill="#380D75"/>
<path d="M25.152 24.9599C24.645 24.9603 24.1584 24.7602 23.7984 24.4031C23.6199 24.2248 23.4782 24.0131 23.3816 23.78C23.285 23.5469 23.2353 23.2971 23.2353 23.0447C23.2353 22.7924 23.285 22.5426 23.3816 22.3095C23.4782 22.0764 23.6199 21.8647 23.7984 21.6863C24.2062 21.2964 24.5319 20.8289 24.7565 20.3113C24.981 19.7936 25.0998 19.2363 25.1059 18.6721C25.112 18.1079 25.0053 17.5482 24.792 17.0259C24.5787 16.5035 24.2631 16.0291 23.8638 15.6304C23.4645 15.2317 22.9896 14.9169 22.4669 14.7045C21.9442 14.492 21.3843 14.3861 20.8201 14.3931C20.2559 14.4001 19.6988 14.5198 19.1815 14.7452C18.6642 14.9706 18.1972 15.2971 17.808 15.7055C17.4477 16.0658 16.9591 16.2682 16.4496 16.2682C15.9401 16.2682 15.4514 16.0658 15.0912 15.7055C14.7309 15.3453 14.5285 14.8566 14.5285 14.3471C14.5285 14.0949 14.5782 13.8451 14.6747 13.612C14.7713 13.3789 14.9128 13.1671 15.0912 12.9887C16.6092 11.4798 18.6627 10.6328 20.8032 10.6328C22.9436 10.6328 24.9971 11.4798 26.5152 12.9887C28.0282 14.5027 28.8782 16.5555 28.8782 18.6959C28.8782 20.8364 28.0282 22.8892 26.5152 24.4031C26.3358 24.5811 26.123 24.7219 25.8891 24.8174C25.6551 24.913 25.4047 24.9614 25.152 24.9599Z" fill="#380D75"/>
<path d="M81.6 81.3696C81.3467 81.3698 81.0958 81.3199 80.8618 81.2227C80.6278 81.1254 80.4154 80.9829 80.2368 80.8032C80.0583 80.6249 79.9167 80.4131 79.8201 80.1801C79.7234 79.947 79.6737 79.6971 79.6737 79.4448C79.6737 79.1925 79.7234 78.9426 79.8201 78.7096C79.9167 78.4765 80.0583 78.2647 80.2368 78.0864C81.0288 77.2927 81.4736 76.2173 81.4736 75.096C81.4736 73.9748 81.0288 72.8993 80.2368 72.1056C79.439 71.3177 78.3629 70.8758 77.2416 70.8758C76.1203 70.8758 75.0442 71.3177 74.2464 72.1056C73.8818 72.4372 73.4036 72.6159 72.9108 72.6046C72.4181 72.5934 71.9486 72.3931 71.5994 72.0452C71.2503 71.6973 71.0483 71.2284 71.0353 70.7357C71.0223 70.243 71.1993 69.7642 71.5296 69.3984C73.0436 67.8854 75.0964 67.0354 77.2368 67.0354C79.3772 67.0354 81.4301 67.8854 82.944 69.3984C83.6952 70.1459 84.2913 71.0345 84.6981 72.0131C85.1048 72.9917 85.3142 74.041 85.3142 75.1008C85.3142 76.1606 85.1048 77.2099 84.6981 78.1885C84.2913 79.1671 83.6952 80.0557 82.944 80.8032C82.588 81.1614 82.1051 81.3649 81.6 81.3696Z" fill="#380D75"/>
<path d="M76.2336 27.84C75.1654 27.8506 74.1057 27.648 73.1167 27.2441C72.1277 26.8403 71.2292 26.2433 70.4736 25.488C69.1439 24.1681 68.3128 22.4281 68.1217 20.5643C67.9306 18.7004 68.3913 16.828 69.4254 15.2657C70.4595 13.7033 72.0032 12.5477 73.7935 11.9954C75.5838 11.4431 77.5102 11.5284 79.2448 12.2366C80.9793 12.9449 82.4148 14.2324 83.3069 15.88C84.1989 17.5276 84.4924 19.4334 84.1374 21.2731C83.7824 23.1127 82.8008 24.7725 81.3597 25.9698C79.9187 27.1671 78.1072 27.828 76.2336 27.84ZM73.2384 22.7712C73.9306 23.4641 74.8416 23.8956 75.8163 23.9922C76.7909 24.0887 77.7689 23.8443 78.5836 23.3007C79.3983 22.757 79.9993 21.9477 80.2842 21.0106C80.569 20.0736 80.5202 19.0667 80.146 18.1616C79.7718 17.2565 79.0953 16.5091 78.2318 16.0468C77.3683 15.5846 76.3713 15.436 75.4106 15.6264C74.4498 15.8168 73.5848 16.3344 72.9629 17.0911C72.341 17.8477 72.0007 18.7966 72 19.776C72.0002 20.8989 72.4455 21.976 73.2384 22.7712Z" fill="#380D75"/>
<path d="M48 16.1472C46.4028 16.1472 44.8414 15.6735 43.5135 14.7859C42.1856 13.8983 41.1508 12.6368 40.54 11.161C39.9293 9.6852 39.7699 8.06137 40.0822 6.49499C40.3945 4.9286 41.1644 3.49004 42.2945 2.36131C43.4246 1.23258 44.864 0.464404 46.4308 0.153967C47.9976 -0.15647 49.6212 0.00478472 51.0963 0.617329C52.5714 1.22987 53.8316 2.26618 54.7176 3.59514C55.6036 4.9241 56.0755 6.48599 56.0736 8.0832C56.071 10.2228 55.2193 12.2739 53.7055 13.7859C52.1917 15.2979 50.1396 16.1472 48 16.1472ZM48 3.84C47.1627 3.84 46.3441 4.0883 45.6479 4.55349C44.9517 5.01869 44.4091 5.67989 44.0887 6.45347C43.7682 7.22706 43.6844 8.0783 43.8477 8.89954C44.0111 9.72078 44.4143 10.4751 45.0064 11.0672C45.5985 11.6593 46.3528 12.0625 47.1741 12.2259C47.9953 12.3892 48.8465 12.3054 49.6201 11.9849C50.3937 11.6645 51.0549 11.1219 51.5201 10.4257C51.9853 9.72945 52.2336 8.91093 52.2336 8.0736C52.2311 6.95156 51.7842 5.8762 50.9908 5.0828C50.1974 4.28939 49.122 3.84254 48 3.84Z" fill="#380D75"/>
<path d="M87.9264 56.0832C86.33 56.0832 84.7694 55.61 83.4419 54.7233C82.1144 53.8365 81.0796 52.5762 80.4683 51.1015C79.8569 49.6268 79.6965 48.0039 80.0072 46.4381C80.318 44.8722 81.0859 43.4336 82.2141 42.3041C83.3422 41.1746 84.7799 40.4049 86.3454 40.0923C87.9109 39.7797 89.5339 39.9383 91.0094 40.5479C92.4848 41.1575 93.7464 42.1908 94.6347 43.5172C95.523 44.8436 95.9981 46.4036 96 48C96 50.1422 95.1497 52.1967 93.6359 53.7123C92.122 55.2279 90.0685 56.0807 87.9264 56.0832ZM87.9264 43.7856C87.0882 43.7856 86.269 44.0344 85.5723 44.5005C84.8757 44.9665 84.3331 45.6289 84.0132 46.4036C83.6934 47.1783 83.6107 48.0305 83.7756 48.8523C83.9405 49.674 84.3456 50.4283 84.9396 51.0196C85.5336 51.6109 86.2898 52.0126 87.1123 52.1738C87.9348 52.335 88.7866 52.2484 89.5598 51.925C90.3331 51.6017 90.993 51.056 91.4558 50.3573C91.9187 49.6586 92.1638 48.8382 92.16 48C92.1549 46.8805 91.7066 45.8086 90.9132 45.0188C90.1198 44.229 89.0459 43.7856 87.9264 43.7856Z" fill="#380D75"/>
<path d="M48 89.8464C40.4264 89.8617 32.9906 87.8213 26.4855 83.9428C19.9803 80.0643 14.6497 74.4931 11.062 67.8232C7.47433 61.1533 5.76403 53.6347 6.11349 46.0692C6.46295 38.5036 8.85908 31.1748 13.0464 24.864C13.1863 24.6541 13.3662 24.4738 13.5758 24.3334C13.7855 24.193 14.0207 24.0953 14.268 24.0459C14.5154 23.9964 14.7701 23.9961 15.0176 24.0451C15.2651 24.094 15.5005 24.1912 15.7104 24.3312C15.9203 24.4711 16.1006 24.651 16.2409 24.8606C16.3813 25.0703 16.479 25.3055 16.5285 25.5528C16.578 25.8002 16.5783 26.0549 16.5293 26.3024C16.4803 26.5499 16.3831 26.7853 16.2432 26.9952C11.3897 34.3143 9.21847 43.0875 10.0981 51.8254C10.9778 60.5634 14.8542 68.7277 21.0692 74.9326C27.2841 81.1374 35.4548 85.0003 44.1942 85.8657C52.9336 86.731 61.7032 84.5455 69.0144 79.68C69.2243 79.54 69.4597 79.4428 69.7072 79.3939C69.9547 79.3449 70.2093 79.3452 70.4567 79.3947C70.7041 79.4441 70.9393 79.5418 71.1489 79.6822C71.3585 79.8226 71.5384 80.0029 71.6784 80.2128C71.8183 80.4227 71.9155 80.6581 71.9645 80.9056C72.0134 81.1531 72.0132 81.4077 71.9637 81.6551C71.9142 81.9025 71.8165 82.1377 71.6761 82.3473C71.5358 82.5569 71.3555 82.7368 71.1456 82.8768C64.2869 87.4325 56.2338 89.8574 48 89.8464Z" fill="#380D75"/>
<path d="M81.1872 72.1056C80.8399 72.1049 80.4993 72.0101 80.2017 71.8312C79.904 71.6523 79.6605 71.396 79.4969 71.0897C79.3334 70.7833 79.256 70.4383 79.2731 70.0915C79.2901 69.7446 79.4009 69.4089 79.5936 69.12C82.6482 64.5684 84.6728 59.4051 85.5264 53.9904C85.5661 53.7383 85.6551 53.4964 85.7883 53.2787C85.9215 53.0609 86.0962 52.8715 86.3026 52.7213C86.509 52.5711 86.7429 52.463 86.991 52.4032C87.2392 52.3434 87.4967 52.3331 87.7488 52.3728C88.0009 52.4125 88.2428 52.5015 88.4605 52.6347C88.6783 52.7678 88.8677 52.9426 89.0179 53.149C89.1681 53.3553 89.2762 53.5893 89.336 53.8374C89.3958 54.0856 89.4061 54.343 89.3664 54.5952C88.4312 60.5584 86.1995 66.2439 82.8288 71.2512C82.6493 71.5204 82.4047 71.7398 82.1177 71.8892C81.8307 72.0386 81.5107 72.113 81.1872 72.1056Z" fill="#380D75"/>
<path d="M87.4272 43.6416C86.9656 43.6472 86.5174 43.4862 86.1648 43.1883C85.8122 42.8903 85.5787 42.4753 85.5072 42.0192C84.5625 36.1057 82.2372 30.498 78.72 25.6512C78.5557 25.4488 78.4344 25.2151 78.3634 24.9643C78.2924 24.7135 78.2732 24.4508 78.307 24.1923C78.3408 23.9339 78.4268 23.685 78.5599 23.4608C78.6931 23.2367 78.8704 23.042 79.0812 22.8887C79.292 22.7353 79.5318 22.6265 79.786 22.5688C80.0402 22.5111 80.3035 22.5058 80.5599 22.5532C80.8162 22.6006 81.0602 22.6997 81.277 22.8445C81.4937 22.9892 81.6788 23.1766 81.8208 23.3952C85.6995 28.7326 88.2649 34.9093 89.3088 41.424C89.386 41.9268 89.2606 42.4397 88.96 42.8501C88.6594 43.2605 88.2083 43.5348 87.7056 43.6128C87.6139 43.6307 87.5207 43.6403 87.4272 43.6416Z" fill="#380D75"/>
<path d="M71.4816 17.6352C71.0792 17.6375 70.6863 17.5132 70.3584 17.28C65.4752 13.7229 59.815 11.3799 53.8464 10.4448C53.3596 10.3497 52.9286 10.0698 52.6436 9.66395C52.3585 9.25807 52.2416 8.75764 52.3173 8.26748C52.393 7.77732 52.6554 7.33546 53.0496 7.03448C53.4438 6.73349 53.9392 6.59673 54.432 6.65283C61.0039 7.68421 67.2362 10.264 72.6144 14.1792C72.9395 14.4188 73.1807 14.7548 73.3039 15.1393C73.427 15.5239 73.4258 15.9375 73.3003 16.3214C73.1748 16.7052 72.9316 17.0397 72.605 17.2773C72.2785 17.5149 71.8854 17.6435 71.4816 17.6448V17.6352Z" fill="#380D75"/>
<path d="M25.8336 16.6559C25.4198 16.6579 25.0165 16.5262 24.6837 16.2804C24.3509 16.0346 24.1064 15.6878 23.9866 15.2918C23.8669 14.8958 23.8782 14.4717 24.019 14.0826C24.1598 13.6936 24.4225 13.3604 24.768 13.1327C29.8176 9.76944 35.5418 7.55121 41.5392 6.63355C42.032 6.57744 42.5273 6.7142 42.9215 7.01519C43.3157 7.31618 43.5782 7.75803 43.6539 8.24819C43.7296 8.73835 43.6127 9.23879 43.3276 9.64467C43.0426 10.0505 42.6115 10.3304 42.1248 10.4255C36.6729 11.2507 31.4688 13.2628 26.88 16.3199C26.5714 16.5315 26.2077 16.6483 25.8336 16.6559Z" fill="#380D75"/>
<path d="M59.7696 76.2528H17.9232C17.414 76.2528 16.9256 76.0506 16.5655 75.6905C16.2055 75.3304 16.0032 74.8421 16.0032 74.3328C16.0032 73.8236 16.2055 73.3353 16.5655 72.9752C16.9256 72.6151 17.414 72.4128 17.9232 72.4128H59.7696C60.2788 72.4128 60.7671 72.6151 61.1272 72.9752C61.4873 73.3353 61.6896 73.8236 61.6896 74.3328C61.6896 74.8421 61.4873 75.3304 61.1272 75.6905C60.7671 76.0506 60.2788 76.2528 59.7696 76.2528Z" fill="#380D75"/>
<path d="M47.376 62.6592H11.616C11.1068 62.6592 10.6184 62.4569 10.2583 62.0969C9.89827 61.7368 9.69598 61.2484 9.69598 60.7392C9.69598 60.23 9.89827 59.7416 10.2583 59.3816C10.6184 59.0215 11.1068 58.8192 11.616 58.8192H47.376C47.8852 58.8192 48.3736 59.0215 48.7336 59.3816C49.0937 59.7416 49.296 60.23 49.296 60.7392C49.296 61.2484 49.0937 61.7368 48.7336 62.0969C48.3736 62.4569 47.8852 62.6592 47.376 62.6592Z" fill="#380D75"/>
<path d="M33.7632 49.0656H11.616C11.1068 49.0656 10.6184 48.8633 10.2583 48.5032C9.89827 48.1432 9.69598 47.6548 9.69598 47.1456C9.69598 46.6364 9.89827 46.148 10.2583 45.7879C10.6184 45.4279 11.1068 45.2256 11.616 45.2256H33.7632C34.2724 45.2256 34.7608 45.4279 35.1208 45.7879C35.4809 46.148 35.6832 46.6364 35.6832 47.1456C35.6832 47.6548 35.4809 48.1432 35.1208 48.5032C34.7608 48.8633 34.2724 49.0656 33.7632 49.0656Z" fill="#380D75"/>
<path d="M19.8048 35.4624H11.616C11.1068 35.4624 10.6184 35.2602 10.2583 34.9001C9.89827 34.54 9.69598 34.0517 9.69598 33.5424C9.69598 33.0332 9.89827 32.5449 10.2583 32.1848C10.6184 31.8247 11.1068 31.6224 11.616 31.6224H19.8048C20.314 31.6224 20.8024 31.8247 21.1624 32.1848C21.5225 32.5449 21.7248 33.0332 21.7248 33.5424C21.7248 34.0517 21.5225 34.54 21.1624 34.9001C20.8024 35.2602 20.314 35.4624 19.8048 35.4624Z" fill="#380D75"/>
</g>
<defs>
<clipPath id="clip0_289_5053">
<rect width="96" height="96" fill="white"/>
</clipPath>
</defs>
</svg>
