<svg width="32" height="32" viewBox="0 0 32 32" fill="none" xmlns="http://www.w3.org/2000/svg">
<g clip-path="url(#clip0_1145_7306)">
<path d="M27.8357 14.2635C27.8363 16.9596 27.0372 19.5953 25.5394 21.8371C24.0416 24.0788 21.9124 25.8259 19.4214 26.8572C16.9304 27.8885 14.1894 28.1577 11.5453 27.6307C8.90122 27.1037 6.47289 25.8042 4.56759 23.8967C2.66228 21.9891 1.36565 19.5593 0.84177 16.9146C0.317886 14.2699 0.590297 11.5292 1.62453 9.0394C2.65876 6.54957 4.40833 4.42249 6.65185 2.92733C8.89536 1.43216 11.532 0.636108 14.2281 0.639906C17.8388 0.643299 21.3004 2.08024 23.852 4.63489C26.4037 7.18954 27.8366 10.6528 27.8357 14.2635Z" stroke="#171321" stroke-width="1.27982" stroke-linecap="round" stroke-linejoin="round"/>
<path d="M25.8102 22.4575L29.9504 25.3051C30.3498 25.5803 30.684 25.9397 30.9294 26.358C31.1749 26.7763 31.3256 27.2434 31.3711 27.7263C31.4165 28.2091 31.3556 28.6961 31.1925 29.1529C31.0294 29.6096 30.7682 30.0251 30.4272 30.37V30.37C30.0843 30.7155 29.6697 30.9814 29.2127 31.1487C28.7556 31.3161 28.2674 31.3808 27.7825 31.3384C27.2976 31.296 26.828 31.1474 26.407 30.9031C25.986 30.6589 25.6239 30.3251 25.3463 29.9252L23.7241 26.9049" stroke="#171321" stroke-width="1.27982" stroke-linecap="round" stroke-linejoin="round"/>
<path d="M6.09766 14.2637C7.93099 18.1031 10.897 20.6115 14.2277 20.6115C17.5584 20.6115 20.5276 18.1095 22.3577 14.2637C20.5276 10.4242 17.5584 7.91577 14.2277 7.91577C11.5369 7.91577 9.08922 9.54114 7.28469 12.1872" stroke="#171321" stroke-width="1.27982" stroke-linecap="round" stroke-linejoin="round"/>
<path d="M17.2158 14.2635C17.2133 15.0078 16.9321 15.7241 16.4278 16.2715C15.9235 16.8189 15.2326 17.1577 14.491 17.2211C13.7494 17.2846 13.0109 17.0681 12.421 16.6143C11.831 16.1605 11.4323 15.5023 11.3034 14.7693C11.1744 14.0363 11.3245 13.2815 11.7242 12.6537C12.1239 12.0258 12.7441 11.5703 13.4628 11.3768C14.1815 11.1833 14.9466 11.2659 15.6074 11.6084C16.2683 11.9508 16.777 12.5282 17.0335 13.2269C17.1551 13.5589 17.2169 13.9099 17.2158 14.2635V14.2635Z" stroke="#171321" stroke-width="1.27982" stroke-linecap="round" stroke-linejoin="round"/>
</g>
<defs>
<clipPath id="clip0_1145_7306">
<rect width="31.9954" height="31.9954" fill="white"/>
</clipPath>
</defs>
</svg>
