<svg width="197" height="24" viewBox="0 0 197 24" fill="none" xmlns="http://www.w3.org/2000/svg">
<g clip-path="url(#clip0_854_2285)">
<path d="M0 0.399902H9.97627C12.8272 0.399902 15.1164 1.26172 16.5745 2.70833C17.159 3.31564 17.6179 4.03233 17.9249 4.81732C18.2319 5.60231 18.381 6.44016 18.3636 7.28287V7.34828C18.3636 11.1957 15.7127 13.4502 12.0654 14.112L19.1946 23.592H15.982L9.24912 14.5852H2.62007V23.5996H0V0.399902ZM9.74543 12.2345C13.2273 12.2345 15.7127 10.4454 15.7127 7.45986V7.39445C15.7127 4.54354 13.5236 2.81991 9.78006 2.81991H2.62007V12.2345H9.74543Z" fill="#ED2224"/>
<path d="M29.271 0.399902H46.0456V2.78528H31.8872V10.7109H44.5528V13.0963H31.8872V21.2181H46.211V23.6035H29.2825L29.271 0.399902Z" fill="#ED2224"/>
<path d="M55.7563 12.0693V12.0039C55.7563 5.63643 60.4309 0 67.3908 0C71.3036 0 73.7236 1.12728 76.0436 3.07791L74.3508 5.06701C72.4418 3.28222 69.9028 2.3275 67.2908 2.41231C62.1545 2.41231 58.4726 6.75601 58.4726 11.9269V11.9961C58.4726 17.5325 62.0199 21.6416 67.6563 21.6416C70.0823 21.6371 72.4377 20.8249 74.3508 19.3331V13.562H67.2908V11.2074H76.8708V20.4412C74.3038 22.7221 70.9903 23.984 67.5563 23.9885C60.2616 24.0038 55.7563 18.6983 55.7563 12.0693Z" fill="#ED2224"/>
<path d="M88.0745 0.399902H104.857V2.78528H90.6945V10.7109H103.356V13.0963H90.6945V21.2181H105.015V23.6035H88.086L88.0745 0.399902Z" fill="#ED2224"/>
<path d="M116.253 0.399902H118.707L133.327 18.9982V0.399902H135.882V23.6035H133.789L118.784 4.57432V23.6035H116.233L116.253 0.399902Z" fill="#ED2224"/>
<path d="M177.211 13.8927V0.399902H179.831V13.7272C179.831 18.7288 182.524 21.549 186.925 21.549C191.2 21.549 193.92 18.9635 193.92 13.8927V0.399902H196.54V13.6926C196.54 20.4563 192.658 23.969 186.86 23.969C181.123 23.969 177.211 20.4563 177.211 13.8927Z" fill="#2B2B2C"/>
<path d="M157.931 10.6265H150.367V3.0625H150.24H147.874H147.747V10.6265H140.183V13.2465H147.747V20.8105H147.874H150.24H150.367V13.2465H157.931V10.6265Z" fill="#2B2B2C"/>
<path d="M163.756 0.396484V10.6267H160.375V10.7075V13.1621V13.2468H163.756V23.6039H166.373V0.396484H163.756Z" fill="#2B2B2C"/>
</g>
<defs>
<clipPath id="clip0_854_2285">
<rect width="196.54" height="24" fill="white"/>
</clipPath>
</defs>
</svg>
